; ModuleID = 'test_symbolic.bc'
target datalayout = "e-p:64:64:64-i1:8:8-i8:8:8-i16:16:16-i32:32:32-i64:64:64-f32:32:32-f64:64:64-v64:64:64-v128:128:128-a0:0:64-s0:64:64-f80:128:128-f128:128:128-n8:16:32:64"
target triple = "x86_64-apple-darwin8"

@a = common unnamed_addr global i32 0
@.str = private unnamed_addr constant [2 x i8] c"a\00", align 1
@.str1 = private constant [22 x i8] c"klee_div_zero_check.c\00", align 1
@.str12 = private constant [15 x i8] c"divide by zero\00", align 1
@.str2 = private constant [8 x i8] c"div.err\00", align 1
@.str3 = private constant [8 x i8] c"IGNORED\00", align 1
@.str14 = private constant [16 x i8] c"overshift error\00", align 1
@.str25 = private constant [14 x i8] c"overshift.err\00", align 1
@.str6 = private constant [13 x i8] c"klee_range.c\00", align 1
@.str17 = private constant [14 x i8] c"invalid range\00", align 1
@.str28 = private constant [5 x i8] c"user\00", align 1

define i32 @main() nounwind {
entry:
  %retval = alloca i32
  %sum = alloca [120 x i32]
  %y = alloca i32
  %z = alloca i32
  %sum1 = alloca [12 x i32]
  %"alloca point" = bitcast i32 0 to i32
  %0 = call i32 (...)* @klee_make_symbolic(i32* @a, i64 4, i8* getelementptr inbounds ([2 x i8]* @.str, i64 0, i64 0)) nounwind
  %1 = load i32* @a, align 4
  %2 = icmp sgt i32 %1, 1
  %3 = zext i1 %2 to i32
  %4 = call i32 (...)* @klee_assume(i32 %3) nounwind
  %5 = load i32* @a, align 4
  %6 = icmp sle i32 %5, 15
  %7 = zext i1 %6 to i32
  %8 = call i32 (...)* @klee_assume(i32 %7) nounwind
  %9 = load i32* @a, align 4
  %10 = mul nsw i32 %9, 2
  %11 = add nsw i32 %10, 1
  %12 = sext i32 %11 to i64
  %13 = getelementptr inbounds [120 x i32]* %sum, i64 0, i64 %12
  %14 = load i32* %13, align 4
  store i32 %14, i32* %y, align 4
  %15 = load i32* @a, align 4
  %16 = mul nsw i32 %15, 2
  %17 = add nsw i32 %16, 3
  %18 = sext i32 %17 to i64
  %19 = getelementptr inbounds [120 x i32]* %sum, i64 0, i64 %18
  %20 = load i32* %19, align 4
  store i32 %20, i32* %z, align 4
  %retval1 = load i32* %retval
  ret i32 %retval1
}

declare i32 @klee_make_symbolic(...)

declare i32 @klee_assume(...)

define void @klee_div_zero_check(i64 %z) nounwind {
entry:
  %0 = icmp eq i64 %z, 0, !dbg !116
  br i1 %0, label %bb, label %return, !dbg !116

bb:                                               ; preds = %entry
  tail call void @klee_report_error(i8* getelementptr inbounds ([22 x i8]* @.str1, i64 0, i64 0), i32 14, i8* getelementptr inbounds ([15 x i8]* @.str12, i64 0, i64 0), i8* getelementptr inbounds ([8 x i8]* @.str2, i64 0, i64 0)) noreturn nounwind, !dbg 
  unreachable, !dbg !118

return:                                           ; preds = %entry
  ret void, !dbg !119
}

declare void @klee_report_error(i8*, i32, i8*, i8*) noreturn

declare void @llvm.dbg.value(metadata, i64, metadata) nounwind readnone

define i32 @klee_int(i8* %name) nounwind {
entry:
  %x = alloca i32, align 4
  %x1 = bitcast i32* %x to i8*, !dbg !120
  call void bitcast (i32 (...)* @klee_make_symbolic to void (i8*, i64, i8*)*)(i8* %x1, i64 4, i8* %name) nounwind, !dbg !120
  %0 = load i32* %x, align 4, !dbg !121
  ret i32 %0, !dbg !121
}

declare void @llvm.dbg.declare(metadata, metadata) nounwind readnone

define void @klee_overshift_check(i64 %bitWidth, i64 %shift) nounwind {
entry:
  %0 = icmp ult i64 %shift, %bitWidth, !dbg !122
  br i1 %0, label %return, label %bb, !dbg !122

bb:                                               ; preds = %entry
  tail call void @klee_report_error(i8* getelementptr inbounds ([8 x i8]* @.str3, i64 0, i64 0), i32 0, i8* getelementptr inbounds ([16 x i8]* @.str14, i64 0, i64 0), i8* getelementptr inbounds ([14 x i8]* @.str25, i64 0, i64 0)) noreturn nounwind, !dbg 
  unreachable, !dbg !124

return:                                           ; preds = %entry
  ret void, !dbg !125
}

define i32 @klee_range(i32 %start, i32 %end, i8* %name) nounwind {
entry:
  %x = alloca i32, align 4
  %0 = icmp slt i32 %start, %end, !dbg !126
  br i1 %0, label %bb1, label %bb, !dbg !126

bb:                                               ; preds = %entry
  call void @klee_report_error(i8* getelementptr inbounds ([13 x i8]* @.str6, i64 0, i64 0), i32 17, i8* getelementptr inbounds ([14 x i8]* @.str17, i64 0, i64 0), i8* getelementptr inbounds ([5 x i8]* @.str28, i64 0, i64 0)) noreturn nounwind, !dbg !127
  unreachable, !dbg !127

bb1:                                              ; preds = %entry
  %1 = add nsw i32 %start, 1, !dbg !128
  %2 = icmp eq i32 %1, %end, !dbg !128
  br i1 %2, label %bb8, label %bb3, !dbg !128

bb3:                                              ; preds = %bb1
  %x4 = bitcast i32* %x to i8*, !dbg !129
  call void bitcast (i32 (...)* @klee_make_symbolic to void (i8*, i64, i8*)*)(i8* %x4, i64 4, i8* %name) nounwind, !dbg !129
  %3 = icmp eq i32 %start, 0, !dbg !130
  %4 = load i32* %x, align 4, !dbg !131
  br i1 %3, label %bb5, label %bb6, !dbg !130

bb5:                                              ; preds = %bb3
  %5 = icmp ult i32 %4, %end, !dbg !131
  %6 = zext i1 %5 to i64, !dbg !131
  call void bitcast (i32 (...)* @klee_assume to void (i64)*)(i64 %6) nounwind, !dbg !131
  br label %bb7, !dbg !131

bb6:                                              ; preds = %bb3
  %7 = icmp sge i32 %4, %start, !dbg !132
  %8 = zext i1 %7 to i64, !dbg !132
  call void bitcast (i32 (...)* @klee_assume to void (i64)*)(i64 %8) nounwind, !dbg !132
  %9 = load i32* %x, align 4, !dbg !133
  %10 = icmp slt i32 %9, %end, !dbg !133
  %11 = zext i1 %10 to i64, !dbg !133
  call void bitcast (i32 (...)* @klee_assume to void (i64)*)(i64 %11) nounwind, !dbg !133
  br label %bb7, !dbg !133

bb7:                                              ; preds = %bb6, %bb5
  %12 = load i32* %x, align 4, !dbg !134
  br label %bb8, !dbg !134

bb8:                                              ; preds = %bb7, %bb1
  %.0 = phi i32 [ %12, %bb7 ], [ %start, %bb1 ]
  ret i32 %.0, !dbg !135
}

define weak i8* @mempcpy(i8* %destaddr, i8* %srcaddr, i64 %len) nounwind {
entry:
  %0 = icmp eq i64 %len, 0, !dbg !136
  br i1 %0, label %bb2, label %bb, !dbg !136

bb:                                               ; preds = %bb, %entry
  %indvar = phi i64 [ %indvar.next, %bb ], [ 0, %entry ]
  %dest.05 = getelementptr i8* %destaddr, i64 %indvar
  %src.06 = getelementptr i8* %srcaddr, i64 %indvar
  %1 = load i8* %src.06, align 1, !dbg !137
  store i8 %1, i8* %dest.05, align 1, !dbg !137
  %indvar.next = add i64 %indvar, 1
  %exitcond1 = icmp eq i64 %indvar.next, %len
  br i1 %exitcond1, label %bb1.bb2_crit_edge, label %bb, !dbg !136

bb1.bb2_crit_edge:                                ; preds = %bb
  %scevgep = getelementptr i8* %destaddr, i64 %len
  br label %bb2

bb2:                                              ; preds = %bb1.bb2_crit_edge, %entry
  %dest.0.lcssa = phi i8* [ %scevgep, %bb1.bb2_crit_edge ], [ %destaddr, %entry ]
  ret i8* %dest.0.lcssa, !dbg !138
}

!llvm.dbg.sp = !{!0, !6, !15, !21, !30, !39, !48, !57}
!llvm.dbg.lv.klee_div_zero_check = !{!67}
!llvm.dbg.lv.klee_int = !{!68, !69}
!llvm.dbg.lv.klee_overshift_check = !{!71, !72}
!llvm.dbg.lv.klee_range = !{!73, !74, !75, !76}
!llvm.dbg.lv.memcpy = !{!78, !79, !80, !81, !85}
!llvm.dbg.lv.memmove = !{!88, !89, !90, !91, !95}
!llvm.dbg.lv.mempcpy = !{!98, !99, !100, !101, !105}
!llvm.dbg.lv.memset = !{!108, !109, !110, !111}

!0 = metadata !{i32 589870, i32 0, metadata !1, metadata !"klee_div_zero_check", metadata !"klee_div_zero_check", metadata !"klee_div_zero_check", metadata !1, i32 12, metadata !3, i1 false, i1 true, i32 0, i32 0, null, i32 256, i1 true, void (i64)* @kle
!1 = metadata !{i32 589865, metadata !"klee_div_zero_check.c", metadata !"/Users/sudiptac/sudiptac/Work/side-channel-repo/cache-side-channel/klee-aes/klee/runtime/Intrinsic/", metadata !2} ; [ DW_TAG_file_type ]
!2 = metadata !{i32 589841, i32 0, i32 1, metadata !"klee_div_zero_check.c", metadata !"/Users/sudiptac/sudiptac/Work/side-channel-repo/cache-side-channel/klee-aes/klee/runtime/Intrinsic/", metadata !"4.2.1 (Based on Apple Inc. build 5658) (LLVM build)",
!3 = metadata !{i32 589845, metadata !1, metadata !"", metadata !1, i32 0, i64 0, i64 0, i64 0, i32 0, null, metadata !4, i32 0, null} ; [ DW_TAG_subroutine_type ]
!4 = metadata !{null, metadata !5}
!5 = metadata !{i32 589860, metadata !1, metadata !"long long int", metadata !1, i32 0, i64 64, i64 64, i64 0, i32 0, i32 5} ; [ DW_TAG_base_type ]
!6 = metadata !{i32 589870, i32 0, metadata !7, metadata !"klee_int", metadata !"klee_int", metadata !"klee_int", metadata !7, i32 13, metadata !9, i1 false, i1 true, i32 0, i32 0, null, i32 256, i1 true, i32 (i8*)* @klee_int} ; [ DW_TAG_subprogram ]
!7 = metadata !{i32 589865, metadata !"klee_int.c", metadata !"/Users/sudiptac/sudiptac/Work/side-channel-repo/cache-side-channel/klee-aes/klee/runtime/Intrinsic/", metadata !8} ; [ DW_TAG_file_type ]
!8 = metadata !{i32 589841, i32 0, i32 1, metadata !"klee_int.c", metadata !"/Users/sudiptac/sudiptac/Work/side-channel-repo/cache-side-channel/klee-aes/klee/runtime/Intrinsic/", metadata !"4.2.1 (Based on Apple Inc. build 5658) (LLVM build)", i1 true, i
!9 = metadata !{i32 589845, metadata !7, metadata !"", metadata !7, i32 0, i64 0, i64 0, i64 0, i32 0, null, metadata !10, i32 0, null} ; [ DW_TAG_subroutine_type ]
!10 = metadata !{metadata !11, metadata !12}
!11 = metadata !{i32 589860, metadata !7, metadata !"int", metadata !7, i32 0, i64 32, i64 32, i64 0, i32 0, i32 5} ; [ DW_TAG_base_type ]
!12 = metadata !{i32 589839, metadata !7, metadata !"", metadata !7, i32 0, i64 64, i64 64, i64 0, i32 0, metadata !13} ; [ DW_TAG_pointer_type ]
!13 = metadata !{i32 589862, metadata !7, metadata !"", metadata !7, i32 0, i64 8, i64 8, i64 0, i32 0, metadata !14} ; [ DW_TAG_const_type ]
!14 = metadata !{i32 589860, metadata !7, metadata !"char", metadata !7, i32 0, i64 8, i64 8, i64 0, i32 0, i32 6} ; [ DW_TAG_base_type ]
!15 = metadata !{i32 589870, i32 0, metadata !16, metadata !"klee_overshift_check", metadata !"klee_overshift_check", metadata !"klee_overshift_check", metadata !16, i32 20, metadata !18, i1 false, i1 true, i32 0, i32 0, null, i32 256, i1 true, void (i64
!16 = metadata !{i32 589865, metadata !"klee_overshift_check.c", metadata !"/Users/sudiptac/sudiptac/Work/side-channel-repo/cache-side-channel/klee-aes/klee/runtime/Intrinsic/", metadata !17} ; [ DW_TAG_file_type ]
!17 = metadata !{i32 589841, i32 0, i32 1, metadata !"klee_overshift_check.c", metadata !"/Users/sudiptac/sudiptac/Work/side-channel-repo/cache-side-channel/klee-aes/klee/runtime/Intrinsic/", metadata !"4.2.1 (Based on Apple Inc. build 5658) (LLVM build)
!18 = metadata !{i32 589845, metadata !16, metadata !"", metadata !16, i32 0, i64 0, i64 0, i64 0, i32 0, null, metadata !19, i32 0, null} ; [ DW_TAG_subroutine_type ]
!19 = metadata !{null, metadata !20, metadata !20}
!20 = metadata !{i32 589860, metadata !16, metadata !"long long unsigned int", metadata !16, i32 0, i64 64, i64 64, i64 0, i32 0, i32 7} ; [ DW_TAG_base_type ]
!21 = metadata !{i32 589870, i32 0, metadata !22, metadata !"klee_range", metadata !"klee_range", metadata !"klee_range", metadata !22, i32 13, metadata !24, i1 false, i1 true, i32 0, i32 0, null, i32 256, i1 true, i32 (i32, i32, i8*)* @klee_range} ; [ D
!22 = metadata !{i32 589865, metadata !"klee_range.c", metadata !"/Users/sudiptac/sudiptac/Work/side-channel-repo/cache-side-channel/klee-aes/klee/runtime/Intrinsic/", metadata !23} ; [ DW_TAG_file_type ]
!23 = metadata !{i32 589841, i32 0, i32 1, metadata !"klee_range.c", metadata !"/Users/sudiptac/sudiptac/Work/side-channel-repo/cache-side-channel/klee-aes/klee/runtime/Intrinsic/", metadata !"4.2.1 (Based on Apple Inc. build 5658) (LLVM build)", i1 true
!24 = metadata !{i32 589845, metadata !22, metadata !"", metadata !22, i32 0, i64 0, i64 0, i64 0, i32 0, null, metadata !25, i32 0, null} ; [ DW_TAG_subroutine_type ]
!25 = metadata !{metadata !26, metadata !26, metadata !26, metadata !27}
!26 = metadata !{i32 589860, metadata !22, metadata !"int", metadata !22, i32 0, i64 32, i64 32, i64 0, i32 0, i32 5} ; [ DW_TAG_base_type ]
!27 = metadata !{i32 589839, metadata !22, metadata !"", metadata !22, i32 0, i64 64, i64 64, i64 0, i32 0, metadata !28} ; [ DW_TAG_pointer_type ]
!28 = metadata !{i32 589862, metadata !22, metadata !"", metadata !22, i32 0, i64 8, i64 8, i64 0, i32 0, metadata !29} ; [ DW_TAG_const_type ]
!29 = metadata !{i32 589860, metadata !22, metadata !"char", metadata !22, i32 0, i64 8, i64 8, i64 0, i32 0, i32 6} ; [ DW_TAG_base_type ]
!30 = metadata !{i32 589870, i32 0, metadata !31, metadata !"memcpy", metadata !"memcpy", metadata !"memcpy", metadata !31, i32 12, metadata !33, i1 false, i1 true, i32 0, i32 0, null, i32 256, i1 true, null} ; [ DW_TAG_subprogram ]
!31 = metadata !{i32 589865, metadata !"memcpy.c", metadata !"/Users/sudiptac/sudiptac/Work/side-channel-repo/cache-side-channel/klee-aes/klee/runtime/Intrinsic/", metadata !32} ; [ DW_TAG_file_type ]
!32 = metadata !{i32 589841, i32 0, i32 1, metadata !"memcpy.c", metadata !"/Users/sudiptac/sudiptac/Work/side-channel-repo/cache-side-channel/klee-aes/klee/runtime/Intrinsic/", metadata !"4.2.1 (Based on Apple Inc. build 5658) (LLVM build)", i1 true, i1
!33 = metadata !{i32 589845, metadata !31, metadata !"", metadata !31, i32 0, i64 0, i64 0, i64 0, i32 0, null, metadata !34, i32 0, null} ; [ DW_TAG_subroutine_type ]
!34 = metadata !{metadata !35, metadata !35, metadata !35, metadata !36}
!35 = metadata !{i32 589839, metadata !31, metadata !"", metadata !31, i32 0, i64 64, i64 64, i64 0, i32 0, null} ; [ DW_TAG_pointer_type ]
!36 = metadata !{i32 589846, metadata !37, metadata !"size_t", metadata !37, i32 30, i64 0, i64 0, i64 0, i32 0, metadata !38} ; [ DW_TAG_typedef ]
!37 = metadata !{i32 589865, metadata !"_uid_t.h", metadata !"/usr/include/sys/_types", metadata !32} ; [ DW_TAG_file_type ]
!38 = metadata !{i32 589860, metadata !31, metadata !"long unsigned int", metadata !31, i32 0, i64 64, i64 64, i64 0, i32 0, i32 7} ; [ DW_TAG_base_type ]
!39 = metadata !{i32 589870, i32 0, metadata !40, metadata !"memmove", metadata !"memmove", metadata !"memmove", metadata !40, i32 12, metadata !42, i1 false, i1 true, i32 0, i32 0, null, i32 256, i1 true, null} ; [ DW_TAG_subprogram ]
!40 = metadata !{i32 589865, metadata !"memmove.c", metadata !"/Users/sudiptac/sudiptac/Work/side-channel-repo/cache-side-channel/klee-aes/klee/runtime/Intrinsic/", metadata !41} ; [ DW_TAG_file_type ]
!41 = metadata !{i32 589841, i32 0, i32 1, metadata !"memmove.c", metadata !"/Users/sudiptac/sudiptac/Work/side-channel-repo/cache-side-channel/klee-aes/klee/runtime/Intrinsic/", metadata !"4.2.1 (Based on Apple Inc. build 5658) (LLVM build)", i1 true, i
!42 = metadata !{i32 589845, metadata !40, metadata !"", metadata !40, i32 0, i64 0, i64 0, i64 0, i32 0, null, metadata !43, i32 0, null} ; [ DW_TAG_subroutine_type ]
!43 = metadata !{metadata !44, metadata !44, metadata !44, metadata !45}
!44 = metadata !{i32 589839, metadata !40, metadata !"", metadata !40, i32 0, i64 64, i64 64, i64 0, i32 0, null} ; [ DW_TAG_pointer_type ]
!45 = metadata !{i32 589846, metadata !46, metadata !"size_t", metadata !46, i32 30, i64 0, i64 0, i64 0, i32 0, metadata !47} ; [ DW_TAG_typedef ]
!46 = metadata !{i32 589865, metadata !"_uid_t.h", metadata !"/usr/include/sys/_types", metadata !41} ; [ DW_TAG_file_type ]
!47 = metadata !{i32 589860, metadata !40, metadata !"long unsigned int", metadata !40, i32 0, i64 64, i64 64, i64 0, i32 0, i32 7} ; [ DW_TAG_base_type ]
!48 = metadata !{i32 589870, i32 0, metadata !49, metadata !"mempcpy", metadata !"mempcpy", metadata !"mempcpy", metadata !49, i32 11, metadata !51, i1 false, i1 true, i32 0, i32 0, null, i32 256, i1 true, i8* (i8*, i8*, i64)* @mempcpy} ; [ DW_TAG_subpro
!49 = metadata !{i32 589865, metadata !"mempcpy.c", metadata !"/Users/sudiptac/sudiptac/Work/side-channel-repo/cache-side-channel/klee-aes/klee/runtime/Intrinsic/", metadata !50} ; [ DW_TAG_file_type ]
!50 = metadata !{i32 589841, i32 0, i32 1, metadata !"mempcpy.c", metadata !"/Users/sudiptac/sudiptac/Work/side-channel-repo/cache-side-channel/klee-aes/klee/runtime/Intrinsic/", metadata !"4.2.1 (Based on Apple Inc. build 5658) (LLVM build)", i1 true, i
!51 = metadata !{i32 589845, metadata !49, metadata !"", metadata !49, i32 0, i64 0, i64 0, i64 0, i32 0, null, metadata !52, i32 0, null} ; [ DW_TAG_subroutine_type ]
!52 = metadata !{metadata !53, metadata !53, metadata !53, metadata !54}
!53 = metadata !{i32 589839, metadata !49, metadata !"", metadata !49, i32 0, i64 64, i64 64, i64 0, i32 0, null} ; [ DW_TAG_pointer_type ]
!54 = metadata !{i32 589846, metadata !55, metadata !"size_t", metadata !55, i32 30, i64 0, i64 0, i64 0, i32 0, metadata !56} ; [ DW_TAG_typedef ]
!55 = metadata !{i32 589865, metadata !"_uid_t.h", metadata !"/usr/include/sys/_types", metadata !50} ; [ DW_TAG_file_type ]
!56 = metadata !{i32 589860, metadata !49, metadata !"long unsigned int", metadata !49, i32 0, i64 64, i64 64, i64 0, i32 0, i32 7} ; [ DW_TAG_base_type ]
!57 = metadata !{i32 589870, i32 0, metadata !58, metadata !"memset", metadata !"memset", metadata !"memset", metadata !58, i32 11, metadata !60, i1 false, i1 true, i32 0, i32 0, null, i32 256, i1 true, null} ; [ DW_TAG_subprogram ]
!58 = metadata !{i32 589865, metadata !"memset.c", metadata !"/Users/sudiptac/sudiptac/Work/side-channel-repo/cache-side-channel/klee-aes/klee/runtime/Intrinsic/", metadata !59} ; [ DW_TAG_file_type ]
!59 = metadata !{i32 589841, i32 0, i32 1, metadata !"memset.c", metadata !"/Users/sudiptac/sudiptac/Work/side-channel-repo/cache-side-channel/klee-aes/klee/runtime/Intrinsic/", metadata !"4.2.1 (Based on Apple Inc. build 5658) (LLVM build)", i1 true, i1
!60 = metadata !{i32 589845, metadata !58, metadata !"", metadata !58, i32 0, i64 0, i64 0, i64 0, i32 0, null, metadata !61, i32 0, null} ; [ DW_TAG_subroutine_type ]
!61 = metadata !{metadata !62, metadata !62, metadata !63, metadata !64}
!62 = metadata !{i32 589839, metadata !58, metadata !"", metadata !58, i32 0, i64 64, i64 64, i64 0, i32 0, null} ; [ DW_TAG_pointer_type ]
!63 = metadata !{i32 589860, metadata !58, metadata !"int", metadata !58, i32 0, i64 32, i64 32, i64 0, i32 0, i32 5} ; [ DW_TAG_base_type ]
!64 = metadata !{i32 589846, metadata !65, metadata !"size_t", metadata !65, i32 30, i64 0, i64 0, i64 0, i32 0, metadata !66} ; [ DW_TAG_typedef ]
!65 = metadata !{i32 589865, metadata !"_uid_t.h", metadata !"/usr/include/sys/_types", metadata !59} ; [ DW_TAG_file_type ]
!66 = metadata !{i32 589860, metadata !58, metadata !"long unsigned int", metadata !58, i32 0, i64 64, i64 64, i64 0, i32 0, i32 7} ; [ DW_TAG_base_type ]
!67 = metadata !{i32 590081, metadata !0, metadata !"z", metadata !1, i32 12, metadata !5, i32 0} ; [ DW_TAG_arg_variable ]
!68 = metadata !{i32 590081, metadata !6, metadata !"name", metadata !7, i32 13, metadata !12, i32 0} ; [ DW_TAG_arg_variable ]
!69 = metadata !{i32 590080, metadata !70, metadata !"x", metadata !7, i32 14, metadata !11, i32 0} ; [ DW_TAG_auto_variable ]
!70 = metadata !{i32 589835, metadata !6, i32 13, i32 0, metadata !7, i32 0} ; [ DW_TAG_lexical_block ]
!71 = metadata !{i32 590081, metadata !15, metadata !"bitWidth", metadata !16, i32 20, metadata !20, i32 0} ; [ DW_TAG_arg_variable ]
!72 = metadata !{i32 590081, metadata !15, metadata !"shift", metadata !16, i32 20, metadata !20, i32 0} ; [ DW_TAG_arg_variable ]
!73 = metadata !{i32 590081, metadata !21, metadata !"start", metadata !22, i32 13, metadata !26, i32 0} ; [ DW_TAG_arg_variable ]
!74 = metadata !{i32 590081, metadata !21, metadata !"end", metadata !22, i32 13, metadata !26, i32 0} ; [ DW_TAG_arg_variable ]
!75 = metadata !{i32 590081, metadata !21, metadata !"name", metadata !22, i32 13, metadata !27, i32 0} ; [ DW_TAG_arg_variable ]
!76 = metadata !{i32 590080, metadata !77, metadata !"x", metadata !22, i32 14, metadata !26, i32 0} ; [ DW_TAG_auto_variable ]
!77 = metadata !{i32 589835, metadata !21, i32 13, i32 0, metadata !22, i32 0} ; [ DW_TAG_lexical_block ]
!78 = metadata !{i32 590081, metadata !30, metadata !"destaddr", metadata !31, i32 12, metadata !35, i32 0} ; [ DW_TAG_arg_variable ]
!79 = metadata !{i32 590081, metadata !30, metadata !"srcaddr", metadata !31, i32 12, metadata !35, i32 0} ; [ DW_TAG_arg_variable ]
!80 = metadata !{i32 590081, metadata !30, metadata !"len", metadata !31, i32 12, metadata !36, i32 0} ; [ DW_TAG_arg_variable ]
!81 = metadata !{i32 590080, metadata !82, metadata !"dest", metadata !31, i32 13, metadata !83, i32 0} ; [ DW_TAG_auto_variable ]
!82 = metadata !{i32 589835, metadata !30, i32 12, i32 0, metadata !31, i32 0} ; [ DW_TAG_lexical_block ]
!83 = metadata !{i32 589839, metadata !31, metadata !"", metadata !31, i32 0, i64 64, i64 64, i64 0, i32 0, metadata !84} ; [ DW_TAG_pointer_type ]
!84 = metadata !{i32 589860, metadata !31, metadata !"char", metadata !31, i32 0, i64 8, i64 8, i64 0, i32 0, i32 6} ; [ DW_TAG_base_type ]
!85 = metadata !{i32 590080, metadata !82, metadata !"src", metadata !31, i32 14, metadata !86, i32 0} ; [ DW_TAG_auto_variable ]
!86 = metadata !{i32 589839, metadata !31, metadata !"", metadata !31, i32 0, i64 64, i64 64, i64 0, i32 0, metadata !87} ; [ DW_TAG_pointer_type ]
!87 = metadata !{i32 589862, metadata !31, metadata !"", metadata !31, i32 0, i64 8, i64 8, i64 0, i32 0, metadata !84} ; [ DW_TAG_const_type ]
!88 = metadata !{i32 590081, metadata !39, metadata !"dst", metadata !40, i32 12, metadata !44, i32 0} ; [ DW_TAG_arg_variable ]
!89 = metadata !{i32 590081, metadata !39, metadata !"src", metadata !40, i32 12, metadata !44, i32 0} ; [ DW_TAG_arg_variable ]
!90 = metadata !{i32 590081, metadata !39, metadata !"count", metadata !40, i32 12, metadata !45, i32 0} ; [ DW_TAG_arg_variable ]
!91 = metadata !{i32 590080, metadata !92, metadata !"a", metadata !40, i32 13, metadata !93, i32 0} ; [ DW_TAG_auto_variable ]
!92 = metadata !{i32 589835, metadata !39, i32 12, i32 0, metadata !40, i32 0} ; [ DW_TAG_lexical_block ]
!93 = metadata !{i32 589839, metadata !40, metadata !"", metadata !40, i32 0, i64 64, i64 64, i64 0, i32 0, metadata !94} ; [ DW_TAG_pointer_type ]
!94 = metadata !{i32 589860, metadata !40, metadata !"char", metadata !40, i32 0, i64 8, i64 8, i64 0, i32 0, i32 6} ; [ DW_TAG_base_type ]
!95 = metadata !{i32 590080, metadata !92, metadata !"b", metadata !40, i32 14, metadata !96, i32 0} ; [ DW_TAG_auto_variable ]
!96 = metadata !{i32 589839, metadata !40, metadata !"", metadata !40, i32 0, i64 64, i64 64, i64 0, i32 0, metadata !97} ; [ DW_TAG_pointer_type ]
!97 = metadata !{i32 589862, metadata !40, metadata !"", metadata !40, i32 0, i64 8, i64 8, i64 0, i32 0, metadata !94} ; [ DW_TAG_const_type ]
!98 = metadata !{i32 590081, metadata !48, metadata !"destaddr", metadata !49, i32 11, metadata !53, i32 0} ; [ DW_TAG_arg_variable ]
!99 = metadata !{i32 590081, metadata !48, metadata !"srcaddr", metadata !49, i32 11, metadata !53, i32 0} ; [ DW_TAG_arg_variable ]
!100 = metadata !{i32 590081, metadata !48, metadata !"len", metadata !49, i32 11, metadata !54, i32 0} ; [ DW_TAG_arg_variable ]
!101 = metadata !{i32 590080, metadata !102, metadata !"dest", metadata !49, i32 12, metadata !103, i32 0} ; [ DW_TAG_auto_variable ]
!102 = metadata !{i32 589835, metadata !48, i32 11, i32 0, metadata !49, i32 0} ; [ DW_TAG_lexical_block ]
!103 = metadata !{i32 589839, metadata !49, metadata !"", metadata !49, i32 0, i64 64, i64 64, i64 0, i32 0, metadata !104} ; [ DW_TAG_pointer_type ]
!104 = metadata !{i32 589860, metadata !49, metadata !"char", metadata !49, i32 0, i64 8, i64 8, i64 0, i32 0, i32 6} ; [ DW_TAG_base_type ]
!105 = metadata !{i32 590080, metadata !102, metadata !"src", metadata !49, i32 13, metadata !106, i32 0} ; [ DW_TAG_auto_variable ]
!106 = metadata !{i32 589839, metadata !49, metadata !"", metadata !49, i32 0, i64 64, i64 64, i64 0, i32 0, metadata !107} ; [ DW_TAG_pointer_type ]
!107 = metadata !{i32 589862, metadata !49, metadata !"", metadata !49, i32 0, i64 8, i64 8, i64 0, i32 0, metadata !104} ; [ DW_TAG_const_type ]
!108 = metadata !{i32 590081, metadata !57, metadata !"dst", metadata !58, i32 11, metadata !62, i32 0} ; [ DW_TAG_arg_variable ]
!109 = metadata !{i32 590081, metadata !57, metadata !"s", metadata !58, i32 11, metadata !63, i32 0} ; [ DW_TAG_arg_variable ]
!110 = metadata !{i32 590081, metadata !57, metadata !"count", metadata !58, i32 11, metadata !64, i32 0} ; [ DW_TAG_arg_variable ]
!111 = metadata !{i32 590080, metadata !112, metadata !"a", metadata !58, i32 12, metadata !113, i32 0} ; [ DW_TAG_auto_variable ]
!112 = metadata !{i32 589835, metadata !57, i32 11, i32 0, metadata !58, i32 0} ; [ DW_TAG_lexical_block ]
!113 = metadata !{i32 589839, metadata !58, metadata !"", metadata !58, i32 0, i64 64, i64 64, i64 0, i32 0, metadata !114} ; [ DW_TAG_pointer_type ]
!114 = metadata !{i32 589877, metadata !58, metadata !"", metadata !58, i32 0, i64 8, i64 8, i64 0, i32 0, metadata !115} ; [ DW_TAG_volatile_type ]
!115 = metadata !{i32 589860, metadata !58, metadata !"char", metadata !58, i32 0, i64 8, i64 8, i64 0, i32 0, i32 6} ; [ DW_TAG_base_type ]
!116 = metadata !{i32 13, i32 0, metadata !117, null}
!117 = metadata !{i32 589835, metadata !0, i32 12, i32 0, metadata !1, i32 0} ; [ DW_TAG_lexical_block ]
!118 = metadata !{i32 14, i32 0, metadata !117, null}
!119 = metadata !{i32 15, i32 0, metadata !117, null}
!120 = metadata !{i32 15, i32 0, metadata !70, null}
!121 = metadata !{i32 16, i32 0, metadata !70, null}
!122 = metadata !{i32 21, i32 0, metadata !123, null}
!123 = metadata !{i32 589835, metadata !15, i32 20, i32 0, metadata !16, i32 0} ; [ DW_TAG_lexical_block ]
!124 = metadata !{i32 27, i32 0, metadata !123, null}
!125 = metadata !{i32 29, i32 0, metadata !123, null}
!126 = metadata !{i32 16, i32 0, metadata !77, null}
!127 = metadata !{i32 17, i32 0, metadata !77, null}
!128 = metadata !{i32 19, i32 0, metadata !77, null}
!129 = metadata !{i32 22, i32 0, metadata !77, null}
!130 = metadata !{i32 25, i32 0, metadata !77, null}
!131 = metadata !{i32 26, i32 0, metadata !77, null}
!132 = metadata !{i32 28, i32 0, metadata !77, null}
!133 = metadata !{i32 29, i32 0, metadata !77, null}
!134 = metadata !{i32 32, i32 0, metadata !77, null}
!135 = metadata !{i32 20, i32 0, metadata !77, null}
!136 = metadata !{i32 15, i32 0, metadata !102, null}
!137 = metadata !{i32 16, i32 0, metadata !102, null}
!138 = metadata !{i32 17, i32 0, metadata !102, null}
